{
    "statusCode": 200,
    "success": true,
    "message": "Categories retrieved successfully",
    "data": {
        "meta": {
            "page": 1,
            "limit": 10,
            "total": 270,
            "totalPages": 27
        },
        "data": [
            {
                "_id": "69e00009aa6d7158dec5d9f2",
                "name": "Oleg Hooper",
                "theme": "PHOTOGRAPHY",
                "type": "category",
                "isPopular": false,
                "isTrending": false,
                "isActive": true,
                "createdAt": "2026-04-15T21:15:53.589Z",
                "updatedAt": "2026-04-15T21:15:53.589Z",
                "__v": 0,
                "id": "69e00009aa6d7158dec5d9f2"
            },
            {
                "_id": "69dfda48f6cff7834990ce3e",
                "name": "Hologram",
                "theme": "EDITING & POST-PRODUCTION",
                "parent": {
                    "_id": "69dfda48f6cff7834990ce2e",
                    "name": "Emerging Formats",
                    "theme": "EDITING & POST-PRODUCTION",
                    "type": "category",
                    "isPopular": false,
                    "isTrending": false,
                    "isActive": true,
                    "createdAt": "2026-04-15T18:34:48.172Z",
                    "updatedAt": "2026-04-15T18:34:48.172Z",
                    "__v": 0,
                    "id": "69dfda48f6cff7834990ce2e"
                },
                "type": "subcategory",
                "isPopular": false,
                "isTrending": false,
                "isActive": true,
                "createdAt": "2026-04-15T18:34:48.842Z",
                "updatedAt": "2026-04-15T18:34:48.842Z",
                "__v": 0,
                "id": "69dfda48f6cff7834990ce3e"
            },
            {
                "_id": "69dfda48f6cff7834990ce3c",
                "name": "Metaverse content",
                "theme": "EDITING & POST-PRODUCTION",
                "parent": {
                    "_id": "69dfda48f6cff7834990ce2e",
                    "name": "Emerging Formats",
                    "theme": "EDITING & POST-PRODUCTION",
                    "type": "category",
                    "isPopular": false,
                    "isTrending": false,
                    "isActive": true,
                    "createdAt": "2026-04-15T18:34:48.172Z",
                    "updatedAt": "2026-04-15T18:34:48.172Z",
                    "__v": 0,
                    "id": "69dfda48f6cff7834990ce2e"
                },
                "type": "subcategory",
                "isPopular": false,
                "isTrending": false,
                "isActive": true,
                "createdAt": "2026-04-15T18:34:48.758Z",
                "updatedAt": "2026-04-15T18:34:48.758Z",
                "__v": 0,
                "id": "69dfda48f6cff7834990ce3c"
            },
            {
                "_id": "69dfda48f6cff7834990ce3a",
                "name": "Video LED wall",
                "theme": "EDITING & POST-PRODUCTION",
                "parent": {
                    "_id": "69dfda48f6cff7834990ce2e",
                    "name": "Emerging Formats",
                    "theme": "EDITING & POST-PRODUCTION",
                    "type": "category",
                    "isPopular": false,
                    "isTrending": false,
                    "isActive": true,
                    "createdAt": "2026-04-15T18:34:48.172Z",
                    "updatedAt": "2026-04-15T18:34:48.172Z",
                    "__v": 0,
                    "id": "69dfda48f6cff7834990ce2e"
                },
                "type": "subcategory",
                "isPopular": false,
                "isTrending": false,
                "isActive": true,
                "createdAt": "2026-04-15T18:34:48.674Z",
                "updatedAt": "2026-04-15T18:34:48.674Z",
                "__v": 0,
                "id": "69dfda48f6cff7834990ce3a"
            },
            {
                "_id": "69dfda48f6cff7834990ce38",
                "name": "Video for DOOH",
                "theme": "EDITING & POST-PRODUCTION",
                "parent": {
                    "_id": "69dfda48f6cff7834990ce2e",
                    "name": "Emerging Formats",
                    "theme": "EDITING & POST-PRODUCTION",
                    "type": "category",
                    "isPopular": false,
                    "isTrending": false,
                    "isActive": true,
                    "createdAt": "2026-04-15T18:34:48.172Z",
                    "updatedAt": "2026-04-15T18:34:48.172Z",
                    "__v": 0,
                    "id": "69dfda48f6cff7834990ce2e"
                },
                "type": "subcategory",
                "isPopular": false,
                "isTrending": false,
                "isActive": true,
                "createdAt": "2026-04-15T18:34:48.590Z",
                "updatedAt": "2026-04-15T18:34:48.590Z",
                "__v": 0,
                "id": "69dfda48f6cff7834990ce38"
            },
            {
                "_id": "69dfda48f6cff7834990ce36",
                "name": "Interactive content",
                "theme": "EDITING & POST-PRODUCTION",
                "parent": {
                    "_id": "69dfda48f6cff7834990ce2e",
                    "name": "Emerging Formats",
                    "theme": "EDITING & POST-PRODUCTION",
                    "type": "category",
                    "isPopular": false,
                    "isTrending": false,
                    "isActive": true,
                    "createdAt": "2026-04-15T18:34:48.172Z",
                    "updatedAt": "2026-04-15T18:34:48.172Z",
                    "__v": 0,
                    "id": "69dfda48f6cff7834990ce2e"
                },
                "type": "subcategory",
                "isPopular": false,
                "isTrending": false,
                "isActive": true,
                "createdAt": "2026-04-15T18:34:48.505Z",
                "updatedAt": "2026-04-15T18:34:48.505Z",
                "__v": 0,
                "id": "69dfda48f6cff7834990ce36"
            },
            {
                "_id": "69dfda48f6cff7834990ce34",
                "name": "Augmented Reality (AR)",
                "theme": "EDITING & POST-PRODUCTION",
                "parent": {
                    "_id": "69dfda48f6cff7834990ce2e",
                    "name": "Emerging Formats",
                    "theme": "EDITING & POST-PRODUCTION",
                    "type": "category",
                    "isPopular": false,
                    "isTrending": false,
                    "isActive": true,
                    "createdAt": "2026-04-15T18:34:48.172Z",
                    "updatedAt": "2026-04-15T18:34:48.172Z",
                    "__v": 0,
                    "id": "69dfda48f6cff7834990ce2e"
                },
                "type": "subcategory",
                "isPopular": false,
                "isTrending": false,
                "isActive": true,
                "createdAt": "2026-04-15T18:34:48.423Z",
                "updatedAt": "2026-04-15T18:34:48.423Z",
                "__v": 0,
                "id": "69dfda48f6cff7834990ce34"
            },
            {
                "_id": "69dfda48f6cff7834990ce32",
                "name": "Virtual Reality (VR)",
                "theme": "EDITING & POST-PRODUCTION",
                "parent": {
                    "_id": "69dfda48f6cff7834990ce2e",
                    "name": "Emerging Formats",
                    "theme": "EDITING & POST-PRODUCTION",
                    "type": "category",
                    "isPopular": false,
                    "isTrending": false,
                    "isActive": true,
                    "createdAt": "2026-04-15T18:34:48.172Z",
                    "updatedAt": "2026-04-15T18:34:48.172Z",
                    "__v": 0,
                    "id": "69dfda48f6cff7834990ce2e"
                },
                "type": "subcategory",
                "isPopular": false,
                "isTrending": false,
                "isActive": true,
                "createdAt": "2026-04-15T18:34:48.340Z",
                "updatedAt": "2026-04-15T18:34:48.340Z",
                "__v": 0,
                "id": "69dfda48f6cff7834990ce32"
            },
            {
                "_id": "69dfda48f6cff7834990ce30",
                "name": "360° video",
                "theme": "EDITING & POST-PRODUCTION",
                "parent": {
                    "_id": "69dfda48f6cff7834990ce2e",
                    "name": "Emerging Formats",
                    "theme": "EDITING & POST-PRODUCTION",
                    "type": "category",
                    "isPopular": false,
                    "isTrending": false,
                    "isActive": true,
                    "createdAt": "2026-04-15T18:34:48.172Z",
                    "updatedAt": "2026-04-15T18:34:48.172Z",
                    "__v": 0,
                    "id": "69dfda48f6cff7834990ce2e"
                },
                "type": "subcategory",
                "isPopular": false,
                "isTrending": false,
                "isActive": true,
                "createdAt": "2026-04-15T18:34:48.256Z",
                "updatedAt": "2026-04-15T18:34:48.256Z",
                "__v": 0,
                "id": "69dfda48f6cff7834990ce30"
            },
            {
                "_id": "69dfda48f6cff7834990ce2e",
                "name": "Emerging Formats",
                "theme": "EDITING & POST-PRODUCTION",
                "type": "category",
                "isPopular": false,
                "isTrending": false,
                "isActive": true,
                "createdAt": "2026-04-15T18:34:48.172Z",
                "updatedAt": "2026-04-15T18:34:48.172Z",
                "__v": 0,
                "id": "69dfda48f6cff7834990ce2e"
            }
        ]
    }
}